src/simulation/qsim/tec498_projeto_01.msim.vcd
$comment
	File created using the following command:
		vcd file tec498_projeto_01.msim.vcd -direction
$end
$date
	Thu Sep 15 13:06:45 2022
$end
$version
	ModelSim Version 2020.1
$end
$timescale
	1ps
$end

$scope module display_vlg_vec_tst $end
$var reg 4 ! diff [3:0] $end
$var reg 1 " sinal $end
$var wire 1 # A $end
$var wire 1 $ B $end
$var wire 1 % C $end
$var wire 1 & D $end
$var wire 1 ' DP $end
$var wire 1 ( E $end
$var wire 1 ) F $end
$var wire 1 * G $end
$var wire 1 + segD $end

$scope module i1 $end
$var wire 1 , gnd $end
$var wire 1 - vcc $end
$var wire 1 . unknown $end
$var tri1 1 / devclrn $end
$var tri1 1 0 devpor $end
$var tri1 1 1 devoe $end
$var wire 1 2 sinal~combout $end
$var wire 1 3 and1Digito2~0_combout $end
$var wire 1 4 and0DigitoN1~0_combout $end
$var wire 1 5 or0_led~combout $end
$var wire 1 6 or1_led~0_combout $end
$var wire 1 7 or2_led~0_combout $end
$var wire 1 8 or4_led~combout $end
$var wire 1 9 nor0Digito0~combout $end
$var wire 1 : or0_led~0_combout $end
$var wire 1 ; or7_dp~0_combout $end
$var wire 1 < diff~combout [3] $end
$var wire 1 = diff~combout [2] $end
$var wire 1 > diff~combout [1] $end
$var wire 1 ? diff~combout [0] $end
$upscope $end
$upscope $end
$enddefinitions $end
#0
$dumpvars
b0 !
1"
0#
0$
0%
0&
0'
0(
0)
0*
0+
0,
1-
x.
1/
10
11
12
03
04
05
06
07
08
19
1:
0;
0?
0>
0=
0<
$end
#5000
b1000 !
1<
#10000
b1100 !
b100 !
1=
0<
#15000
b1100 !
1<
14
#20000
b1110 !
b1010 !
b10 !
1>
0=
0<
1;
0:
18
16
15
04
0;
1:
08
06
05
1'
1(
1$
1&
1#
1*
0'
0(
0$
0&
0#
0*
#25000
b1010 !
1<
#30000
b1110 !
b110 !
1=
0<
#35000
b1110 !
1<
14
1;
0:
18
16
15
1'
1(
1$
1&
1#
1*
#40000
b1111 !
b1101 !
b1001 !
b1 !
1?
0>
0=
0<
08
17
04
0;
1:
07
06
05
0(
1%
0'
0%
0$
0&
0#
0*
#45000
b1001 !
1<
#50000
b1101 !
b101 !
1=
0<
#55000
b1101 !
1<
14
1;
0:
17
16
15
1'
1%
1$
1&
1#
1*
#60000
b1111 !
b1011 !
b11 !
1>
0=
0<
1:
05
04
0;
07
06
0&
0#
0*
0'
0%
0$
#65000
b1011 !
1<
#70000
b1111 !
b111 !
1=
0<
#75000
b1111 !
1<
14
1;
17
16
1'
1%
1$
