src/simulation/qsim/tec498_projeto_01.msim.vcd
$comment
	File created using the following command:
		vcd file tec498_projeto_01.msim.vcd -direction
$end
$date
	Thu Sep 15 10:55:08 2022
$end
$version
	ModelSim Version 2020.1
$end
$timescale
	1ps
$end

$scope module projeto_vlg_vec_tst $end
$var reg 4 ! senha [3:0] $end
$var reg 4 " tentativa [3:0] $end
$var wire 1 # display [7] $end
$var wire 1 $ display [6] $end
$var wire 1 % display [5] $end
$var wire 1 & display [4] $end
$var wire 1 ' display [3] $end
$var wire 1 ( display [2] $end
$var wire 1 ) display [1] $end
$var wire 1 * display [0] $end
$var wire 1 + led0 $end
$var wire 1 , led1 $end
$var wire 1 - led2 $end

$scope module i1 $end
$var wire 1 . gnd $end
$var wire 1 / vcc $end
$var wire 1 0 unknown $end
$var tri1 1 1 devclrn $end
$var tri1 1 2 devpor $end
$var tri1 1 3 devoe $end
$var wire 1 4 comp0|nor0~0_combout $end
$var wire 1 5 sub0|adder0|adder1|or0~combout $end
$var wire 1 6 sub0|adder0|adder2|xor1~combout $end
$var wire 1 7 sub0|adder0|adder2|or0~combout $end
$var wire 1 8 sub0|adder0|adder3|xor1~combout $end
$var wire 1 9 comp0|nor0~combout $end
$var wire 1 : comp0|or1~0_combout $end
$var wire 1 ; comp0|and6~combout $end
$var wire 1 < comp0|nor2~combout $end
$var wire 1 = senha~combout [3] $end
$var wire 1 > senha~combout [2] $end
$var wire 1 ? senha~combout [1] $end
$var wire 1 @ senha~combout [0] $end
$var wire 1 A tentativa~combout [3] $end
$var wire 1 B tentativa~combout [2] $end
$var wire 1 C tentativa~combout [1] $end
$var wire 1 D tentativa~combout [0] $end
$upscope $end
$upscope $end
$enddefinitions $end
#0
$dumpvars
b0 !
b0 "
0*
0)
0(
0'
0&
0%
0$
0#
1+
0,
0-
0.
1/
x0
11
12
13
14
15
16
17
18
09
0:
0;
1<
0@
0?
0>
0=
0D
0C
0B
0A
$end
#5000
b1000 !
b1 "
1D
1=
05
04
08
07
06
0<
19
18
0+
1-
#10000
b1100 !
b11 "
b100 !
b10 "
0D
1C
1>
0=
17
16
1:
08
0:
18
1<
1;
1,
0-
#15000
b1100 !
b11 "
1D
1=
08
0<
0;
0,
1-
#20000
b1110 !
b111 "
b1010 !
b101 "
b10 !
b100 "
0D
0C
1B
1?
0>
0=
15
07
18
06
1:
08
1<
1;
1,
0-
#25000
b1010 !
b101 "
1D
1=
0:
18
0<
0;
0,
1-
#30000
b1110 !
b111 "
b110 !
b110 "
0D
1C
1>
0=
14
17
16
1:
08
0:
18
1<
09
1+
0-
#35000
b1110 !
b111 "
1D
1=
05
04
08
07
06
0<
19
18
0+
1-
#40000
b1111 !
b1111 "
b1101 !
b1011 "
b1001 !
b1001 "
b1 !
b1000 "
0D
0C
0B
1A
1@
0?
0>
0=
15
1:
17
16
08
#45000
b1001 !
b1001 "
1D
1=
14
0:
18
1<
09
1+
0-
#50000
b1101 !
b1011 "
b101 !
b1010 "
0D
1C
1>
0=
05
04
06
1:
08
16
1;
19
0<
0;
1,
0+
0,
1-
#55000
b1101 !
b1011 "
1D
1=
0:
18
1<
1;
1,
0-
#60000
b1111 !
b1111 "
b1011 !
b1101 "
b11 !
b1100 "
0D
0C
1B
1?
0>
0=
15
07
1:
08
06
18
0<
0;
0,
1-
#65000
b1011 !
b1101 "
1D
1=
08
1<
1;
1,
0-
#70000
b1111 !
b1111 "
b111 !
b1110 "
0D
1C
1>
0=
17
16
18
08
0<
0;
0,
1-
#75000
b1111 !
b1111 "
1D
1=
14
0:
18
1<
09
1+
0-
