src/simulation/qsim/tec498_projeto_01.msim.vcd
$comment
	File created using the following command:
		vcd file tec498_projeto_01.msim.vcd -direction
$end
$date
	Wed Sep 14 22:22:42 2022
$end
$version
	ModelSim Version 2020.1
$end
$timescale
	1ps
$end

$scope module comparador_vlg_vec_tst $end
$var reg 4 ! diff [3:0] $end
$var reg 1 " sinal $end
$var wire 1 # ate3 $end
$var wire 1 $ errada $end
$var wire 1 % igual $end

$scope module i1 $end
$var wire 1 & gnd $end
$var wire 1 ' vcc $end
$var wire 1 ( unknown $end
$var tri1 1 ) devclrn $end
$var tri1 1 * devpor $end
$var tri1 1 + devoe $end
$var wire 1 , nor0~0_combout $end
$var wire 1 - and6~0_combout $end
$var wire 1 . sinal~combout $end
$var wire 1 / and6~1_combout $end
$var wire 1 0 diff~combout [3] $end
$var wire 1 1 diff~combout [2] $end
$var wire 1 2 diff~combout [1] $end
$var wire 1 3 diff~combout [0] $end
$upscope $end
$upscope $end
$enddefinitions $end
#0
$dumpvars
b0 !
0"
0#
0$
1%
0&
1'
x(
1)
1*
1+
0,
0-
0.
0/
03
02
01
00
$end
#5000
1"
1.
#10000
b1000 !
b1001 !
0"
13
10
0.
1,
1/
0%
1#
#15000
1"
1.
0/
0#
#20000
b1011 !
b11 !
b10 !
0"
03
12
00
0.
1/
1#
#25000
1"
1.
0/
0#
#30000
b1010 !
b1011 !
0"
13
10
0.
1/
1#
#35000
1"
1.
0/
0#
#40000
b1111 !
b1101 !
b101 !
b100 !
0"
03
02
11
00
0.
1/
1#
#45000
1"
1.
0/
0#
#50000
b1100 !
b1101 !
0"
13
10
0.
1-
1/
1#
#55000
1"
1.
0/
0#
#60000
b1111 !
b111 !
b110 !
0"
03
12
00
0.
1/
0-
1#
#65000
1"
1.
0/
0#
#70000
b1110 !
b1111 !
0"
13
10
0.
1-
1/
1#
#75000
1"
1.
