src/simulation/qsim/tec498_projeto_01.msim.vcd
$comment
	File created using the following command:
		vcd file tec498_projeto_01.msim.vcd -direction
$end
$date
	Thu Sep 15 13:15:01 2022
$end
$version
	ModelSim Version 2020.1
$end
$timescale
	1ps
$end

$scope module projeto_vlg_vec_tst $end
$var reg 4 ! senha [3:0] $end
$var reg 4 " tentativa [3:0] $end
$var wire 1 # A $end
$var wire 1 $ B $end
$var wire 1 % D $end
$var wire 1 & DP $end
$var wire 1 ' E $end
$var wire 1 ( F $end
$var wire 1 ) G $end
$var wire 1 * led0 $end
$var wire 1 + led1 $end
$var wire 1 , led2 $end
$var wire 1 - segD $end

$scope module i1 $end
$var wire 1 . gnd $end
$var wire 1 / vcc $end
$var wire 1 0 unknown $end
$var tri1 1 1 devclrn $end
$var tri1 1 2 devpor $end
$var tri1 1 3 devoe $end
$var wire 1 4 sub0|adder0|adder1|or0~combout $end
$var wire 1 5 sub0|adder0|adder2|xor1~combout $end
$var wire 1 6 sub0|adder0|adder1|xor1~combout $end
$var wire 1 7 sub0|adder0|adder2|or0~combout $end
$var wire 1 8 sub0|adder0|adder3|xor1~combout $end
$var wire 1 9 sub0|adder0|adder0|xor0~combout $end
$var wire 1 : comp0|nor0~combout $end
$var wire 1 ; comp0|and1~0_combout $end
$var wire 1 < comp0|and3~0_combout $end
$var wire 1 = comp0|or1~2_combout $end
$var wire 1 > comp0|and6~combout $end
$var wire 1 ? comp0|nor2~combout $end
$var wire 1 @ display0|or0_led~combout $end
$var wire 1 A display0|or1_led~0_combout $end
$var wire 1 B display0|or4_led~combout $end
$var wire 1 C display0|nor0Digito0~combout $end
$var wire 1 D display0|or0_led~0_combout $end
$var wire 1 E senha~combout [3] $end
$var wire 1 F senha~combout [2] $end
$var wire 1 G senha~combout [1] $end
$var wire 1 H senha~combout [0] $end
$var wire 1 I tentativa~combout [3] $end
$var wire 1 J tentativa~combout [2] $end
$var wire 1 K tentativa~combout [1] $end
$var wire 1 L tentativa~combout [0] $end
$upscope $end
$upscope $end
$enddefinitions $end
#0
$dumpvars
b0 !
b0 "
1#
1$
1%
0&
1'
1(
0)
1*
0+
0,
1-
0.
1/
x0
11
12
13
14
15
16
17
18
09
0:
1;
0<
1=
0>
1?
1@
1A
1B
0C
1D
0H
0G
0F
0E
0L
0K
0J
0I
$end
#5000
b1000 !
b1 "
1L
1E
1C
19
06
04
0;
08
0B
0A
0@
1:
07
05
0(
0?
18
0'
0$
0%
0#
0*
1,
#10000
b1100 !
b11 "
b100 !
b10 "
0L
1K
1F
0E
09
17
15
1<
08
0D
1B
1A
1@
0<
1;
18
0=
1=
1?
1>
1'
1$
1%
1#
1&
1)
1+
0,
0&
#15000
b1100 !
b11 "
1L
1E
19
16
0;
08
1D
0B
0A
0@
0?
0>
0'
0$
0%
0#
0+
1,
0)
#20000
b1110 !
b111 "
b1010 !
b101 "
b10 !
b100 "
0L
0K
1J
1G
0F
0E
09
06
14
07
1;
18
0D
1B
1A
1@
05
0;
08
1?
1>
1<
1D
0B
0A
0@
0?
0>
1'
1$
1%
1#
1+
0,
1)
0D
1B
1A
1@
0=
0'
0$
0%
0#
0+
1,
0)
1?
1>
1'
1$
1%
1#
1&
1)
1+
0,
#25000
b1010 !
b101 "
1L
1E
19
16
0<
18
1D
0B
0A
0@
1=
0?
0>
0'
0$
0%
0#
0&
0)
0+
1,
#30000
b1110 !
b111 "
b110 !
b110 "
0L
1K
1F
0E
09
17
15
1<
08
0<
1;
18
1B
1A
1@
0C
1?
1>
0:
0>
1'
1$
1%
1#
1+
1*
0,
1(
0+
#35000
b1110 !
b111 "
1L
1E
1C
19
06
04
0;
08
0B
0A
0@
1:
07
05
0(
0?
18
0'
0$
0%
0#
0*
1,
#40000
b1111 !
b1111 "
b1101 !
b1011 "
b1001 !
b1001 "
b1 !
b1000 "
0L
0K
0J
1I
1H
0G
0F
0E
16
14
17
15
08
#45000
b1001 !
b1001 "
1L
1E
09
1;
18
1B
1A
1@
0:
0C
1?
1>
0>
1'
1$
1%
1#
1+
0,
1(
1*
0+
#50000
b1101 !
b1011 "
b101 !
b1010 "
0L
1K
1F
0E
1C
19
06
04
05
0;
08
0B
0A
0@
1:
15
1<
0(
0?
0<
1A
0=
0'
0$
0%
0#
0*
0A
1=
1?
1>
1$
1&
1,
0?
0>
0$
1+
0,
0&
0+
1,
#55000
b1101 !
b1011 "
1L
1E
09
1;
18
0D
1B
1A
1@
1?
1>
1'
1$
1%
1#
1+
0,
1)
#60000
b1111 !
b1111 "
b1011 !
b1101 "
b11 !
b1100 "
0L
0K
1J
1G
0F
0E
19
14
07
0;
08
1D
0B
0A
0@
05
18
0?
0>
0'
0$
0%
0#
0+
1,
0)
#65000
b1011 !
b1101 "
1L
1E
09
1<
08
0D
1B
1A
1@
0=
1?
1>
1'
1$
1%
1#
1&
1)
1+
0,
#70000
b1111 !
b1111 "
b111 !
b1110 "
0L
1K
1F
0E
19
16
17
15
0<
18
1D
0B
0A
0@
1=
08
0?
0>
0'
0$
0%
0#
0&
0)
0+
1,
#75000
b1111 !
b1111 "
1L
1E
09
1;
18
1B
1A
1@
0:
0C
1?
1>
0>
1'
1$
1%
1#
1+
0,
1(
1*
0+
